Thomas_Hesse_DACSS_601_Challenge_5 – Tom Hesse DACSS 604 Assignment #4
…
Part 2

haunted_places <- read_csv("_data/haunted_places.csv")

print(haunted_places)

# A tibble: 10,992 × 10
   city       country description location state state_abbrev longitude latitude
   <chr>      <chr>   <chr>       <chr>    <chr> <chr>            <dbl>    <dbl>
 1 Ada        United… "Ada witch… Ada Cem… Mich… MI               -85.5     43.0
 2 Addison    United… "A little … North A… Mich… MI               -84.4     42.0
 3 Adrian     United… "If you ta… Ghost T… Mich… MI               -84.0     41.9
 4 Adrian     United… "In the 19… Siena H… Mich… MI               -84.0     41.9
 5 Albion     United… "Kappa Del… Albion … Mich… MI               -84.7     42.2
 6 Albion     United… "A mysteri… Riversi… Mich… MI               -84.8     42.2
 7 Algoma To… United… "On a wind… Hell's … Mich… MI                NA       NA  
 8 Algonac    United… "Morrow Ro… Morrow … Mich… MI               -82.6     42.7
 9 Allegan    United… "People re… Elks Lo… Mich… MI               -85.8     42.5
10 Allegan    United… "Various g… The Gri… Mich… MI               -85.9     42.5
# ℹ 10,982 more rows
# ℹ 2 more variables: city_longitude <dbl>, city_latitude <dbl>
…
